id,name,code,parent,type,reconcile,party_required
pc,PLAN DE CUENTAS,,,co,,
pc_1,ACTIVOS,1,pc,,,
pc_11,DISPONIBLE,11,pc_1,,,
pc_1105,CAJA,1105,pc_11,,,
pc_110505,CAJA GENERAL,110505,pc_1105,co_balance_11010,,
pc_110510,CAJAS MENORES,110510,pc_1105,co_balance_11010,,
pc_1110,BANCOS,1110,pc_11,,,
pc_111005,MONEDA NACIONAL,111005,pc_1110,,,
pc_11100501,BANCO X,11100501,pc_111005,co_balance_11010,,
pc_1115,REMESAS EN TRÁNSITO,1115,pc_11,,,
pc_111505,MONEDA NACIONAL,111505,pc_1115,co_balance_11010,,
pc_1120,CUENTAS DE AHORRO,1120,pc_11,,,
pc_112005,BANCOS,112005,pc_1120,co_balance_11010,,
pc_112010,CORPORACIONES DE AHORRO Y VIVIENDA,112010,pc_1120,co_balance_11010,,
pc_112015,ORGANISMOS COOPERATIVOS FINANCIEROS,112015,pc_1120,co_balance_11010,,
pc_1125,FONDOS,1125,pc_11,,,
pc_12,INVERSIONES,12,pc_1,,,
pc_1205,ACCIONES,1205,pc_12,,,
pc_1210,CUOTAS O PARTES DE INTERÉS SOCIAL,1210,pc_12,,,
pc_1215,BONOS,1215,pc_12,,,
pc_121595,OTROS,121595,pc_1215,co_balance_11030,True,True
pc_1225,CERTIFICADOS,1225,pc_12,,,
pc_1230,PAPELES COMERCIALES,1230,pc_12,,,
pc_1235,TÍTULOS,1235,pc_12,,,
pc_1240,ACEPTACIONES BANCARIAS O FINANCIERAS,1240,pc_12,,,
pc_124005,BANCOS COMERCIALES,124005,pc_1240,co_balance_11030,,
pc_124010,COMPAÑÍAS DE FINANCIAMIENTO COMERCIAL**,124010,pc_1240,co_balance_11030,,
pc_124015,CORPORACIONES FINANCIERAS,124015,pc_1240,co_balance_11030,,
pc_124095,OTRAS,124095,pc_1240,co_balance_11030,,
pc_1245,DERECHOS FIDUCIARIOS,1245,pc_12,,,
pc_1250,DERECHOS DE RECOMPRA DE INVERSIONES NEGOCIADAS (REPOS),1250,pc_12,,,
pc_125005,ACCIONES,125005,pc_1250,co_balance_11030,True,True
pc_125010,CUOTAS O PARTES DE INTERÉS SOCIAL,125010,pc_1250,co_balance_11030,True,True
pc_125015,BONOS,125015,pc_1250,co_balance_11030,True,True
pc_125020,CÉDULAS,125020,pc_1250,co_balance_11030,True,True
pc_125025,CERTIFICADOS,125025,pc_1250,co_balance_11030,True,True
pc_125030,PAPELES COMERCIALES,125030,pc_1250,co_balance_11030,True,True
pc_125035,TÍTULOS,125035,pc_1250,co_balance_11030,True,True
pc_125040,ACEPTACIONES BANCARIAS O FINANCIERAS,125040,pc_1250,co_balance_11030,True,True
pc_125095,OTROS,125095,pc_1250,co_balance_11030,True,True
pc_1255,OBLIGATORIAS,1255,pc_12,,,
pc_125595,OTRAS,125595,pc_1255,co_balance_11040,True,True
pc_1260,CUENTAS EN PARTICIPACIÓN,1260,pc_12,,,
pc_1295,OTRAS INVERSIONES,1295,pc_12,,,
pc_129505,APORTES EN COOPERATIVAS,129505,pc_1295,co_balance_11040,True,True
pc_129510,DERECHOS EN CLUBES SOCIALES,129510,pc_1295,co_balance_11040,True,True
pc_129515,ACCIONES O DERECHOS EN CLUBES DEPORTIVOS,129515,pc_1295,co_balance_11040,True,True
pc_129520,BONOS EN COLEGIOS,129520,pc_1295,co_balance_11040,True,True
pc_129595,DIVERSAS,129595,pc_1295,co_balance_11040,True,True
pc_1299,PROVISIONES,1299,pc_12,,,
pc_129905,ACCIONES,129905,pc_1299,co_balance_11040,True,True
pc_129910,CUOTAS O PARTES DE INTERÉS SOCIAL,129910,pc_1299,co_balance_11040,True,True
pc_129915,BONOS,129915,pc_1299,co_balance_11040,True,True
pc_129920,CÉDULAS,129920,pc_1299,co_balance_11040,True,True
pc_129925,CERTIFICADOS,129925,pc_1299,co_balance_11040,True,True
pc_129930,PAPELES COMERCIALES,129930,pc_1299,co_balance_11040,True,True
pc_129935,TÍTULOS,129935,pc_1299,co_balance_11040,True,True
pc_129940,ACEPTACIONES BANCARIAS O FINANCIERAS,129940,pc_1299,co_balance_11040,True,True
pc_129945,DERECHOS FIDUCIARIOS,129945,pc_1299,co_balance_11040,True,True
pc_129950,DERECHOS DE RECOMPRA DE INVERSIONES NEGOCIADAS,129950,pc_1299,co_balance_11040,True,True
pc_129955,OBLIGATORIAS,129955,pc_1299,co_balance_11040,True,True
pc_129960,CUENTAS EN PARTICIPACIÓN,129960,pc_1299,co_balance_11040,True,True
pc_129995,OTRAS INVERSIONES,129995,pc_1299,co_balance_11040,True,True
pc_13,DEUDORES,13,pc_1,,,
pc_1305,CLIENTES,1305,pc_13,,,
pc_130505,NACIONALES,130505,pc_1305,co_balance_11050,True,True
pc_130510,DEL EXTERIOR,130510,pc_1305,co_balance_11050,True,True
pc_130515,DEUDORES DEL SISTEMA,130515,pc_1305,co_balance_11050,True,True
pc_130595,OTROS,130595,pc_1305,co_balance_11050,True,True
pc_1310,CUENTAS CORRIENTES COMERCIALES,1310,pc_13,,,
pc_131005,CASA MATRIZ,131005,pc_1310,co_balance_11060,True,True
pc_131010,COMPAÑÍAS VINCULADAS,131010,pc_1310,co_balance_11060,True,True
pc_131015,ACCIONISTAS O SOCIOS,131015,pc_1310,co_balance_11060,True,True
pc_131020,PARTICULARES,131020,pc_1310,co_balance_11060,True,True
pc_131095,OTRAS,131095,pc_1310,co_balance_11060,True,True
pc_1315,CUENTAS POR COBRAR A CASA MATRIZ,1315,pc_13,,,
pc_131505,VENTAS,131505,pc_1315,co_balance_11060,True,True
pc_131510,PAGOS A NOMBRE DE CASA MATRIZ,131510,pc_1315,co_balance_11060,True,True
pc_131515,VALORES RECIBIDOS POR CASA MATRIZ,131515,pc_1315,co_balance_11060,True,True
pc_131520,PRÉSTAMOS,131520,pc_1315,co_balance_11060,True,True
pc_1320,CUENTAS POR COBRAR A VINCULADOS ECONÓMICOS,1320,pc_13,,,
pc_132005,FILIALES,132005,pc_1320,co_balance_11060,True,True
pc_132010,SUBSIDIARIAS,132010,pc_1320,co_balance_11060,True,True
pc_132015,SUCURSALES,132015,pc_1320,co_balance_11060,True,True
pc_1323,CUENTAS POR COBRAR A DIRECTORES,1323,pc_13,,,
pc_1325,CUENTAS POR COBRAR A SOCIOS Y ACCIONISTAS,1325,pc_13,,,
pc_132505,A SOCIOS,132505,pc_1325,co_balance_11060,True,True
pc_132510,A ACCIONISTAS,132510,pc_1325,co_balance_11060,True,True
pc_1328,APORTES POR COBRAR,1328,pc_13,,,
pc_1330,ANTICIPOS Y AVANCES,1330,pc_13,,,
pc_133005,A PROVEEDORES,133005,pc_1330,co_balance_11110,True,True
pc_133010,A CONTRATISTAS,133010,pc_1330,co_balance_11110,True,True
pc_133015,A TRABAJADORES,133015,pc_1330,co_balance_11110,True,True
pc_133020,A AGENTES,133020,pc_1330,co_balance_11110,True,True
pc_133025,A CONCESIONARIOS,133025,pc_1330,co_balance_11110,True,True
pc_133030,DE ADJUDICACIONES,133030,pc_1330,co_balance_11110,True,True
pc_1332,CUENTAS DE OPERACIÓN CONJUNTA,1332,pc_13,,,
pc_1335,DEPÓSITOS,1335,pc_13,,,
pc_133505,PARA IMPORTACIONES,133505,pc_1335,co_balance_11050,True,True
pc_133510,PARA SERVICIOS,133510,pc_1335,co_balance_11050,True,True
pc_133515,PARA CONTRATOS,133515,pc_1335,co_balance_11050,True,True
pc_133520,PARA RESPONSABILIDADES,133520,pc_1335,co_balance_11050,True,True
pc_133525,PARA JUICIOS EJECUTIVOS,133525,pc_1335,co_balance_11050,True,True
pc_133530,"PARA ADQUISICIÓN DE ACCIONES, CUOTAS O DERECHOS SOCIALES",133530,pc_1335,co_balance_11050,True,True
pc_133535,EN GARANTÍA,133535,pc_1335,co_balance_11050,True,True
pc_1340,PROMESAS DE COMPRA VENTA,1340,pc_13,,,
pc_1345,INGRESOS POR COBRAR,1345,pc_13,,,
pc_134505,DIVIDENDOS Y/O PARTICIPACIONES,134505,pc_1345,co_balance_11050,True,True
pc_134510,INTERESES,134510,pc_1345,co_balance_11050,True,True
pc_134515,COMISIONES,134515,pc_1345,co_balance_11050,True,True
pc_134520,HONORARIOS,134520,pc_1345,co_balance_11050,True,True
pc_134525,SERVICIOS,134525,pc_1345,co_balance_11050,True,True
pc_134530,ARRENDAMIENTOS,134530,pc_1345,co_balance_11050,True,True
pc_134535,CERT POR COBRAR,134535,pc_1345,co_balance_11050,True,True
pc_1350,RETENCIÓN SOBRE CONTRATOS,1350,pc_13,,,
pc_135005,DE CONSTRUCCIÓN,135005,pc_1350,co_balance_11050,True,True
pc_135010,DE PRESTACIÓN DE SERVICIOS,135010,pc_1350,co_balance_11050,True,True
pc_1355,ANTICIPO DE IMPUESTOS Y CONTRIBUCIONES O SALDOS A FAVOR,1355,pc_13,,,
pc_135505,ANTICIPO DE IMPUESTOS DE RENTA Y COMPLEMENTARIOS,135505,pc_1355,co_balance_11120,True,True
pc_135510,ANTICIPO DE IMPUESTOS DE INDUSTRIA Y COMERCIO,135510,pc_1355,co_balance_11120,True,True
pc_135515,RETENCIÓN EN LA FUENTE,135515,pc_1355,,,
pc_135517,IMPUESTO A LAS VENTAS RETENIDO,135517,pc_1355,co_balance_11120,True,True
pc_135518,IMPUESTO DE INDUSTRIA Y COMERCIO RETENIDO,135518,pc_1355,co_balance_11120,True,True
pc_135520,SOBRANTES EN LIQUIDACIÓN PRIVADA DE IMPUESTOS,135520,pc_1355,co_balance_11120,True,True
pc_135525,CONTRIBUCIONES,135525,pc_1355,co_balance_11120,True,True
pc_135530,IMPUESTOS DESCONTABLES,135530,pc_1355,co_balance_11120,True,True
pc_1360,RECLAMACIONES,1360,pc_13,,,
pc_136005,A COMPAÑÍAS ASEGURADORAS,136005,pc_1360,co_balance_11050,True,True
pc_136010,A TRANSPORTADORES,136010,pc_1360,co_balance_11050,True,True
pc_136015,POR TIQUETES AÉREOS,136015,pc_1360,co_balance_11050,True,True
pc_1365,CUENTAS POR COBRAR A TRABAJADORES,1365,pc_13,,,
pc_136505,VIVIENDA,136505,pc_1365,co_balance_11050,True,True
pc_136510,VEHÍCULOS,136510,pc_1365,co_balance_11050,True,True
pc_136515,EDUCACIÓN,136515,pc_1365,co_balance_11050,True,True
pc_136520,"MÉDICOS, ODONTOLÓGICOS Y SIMILARES",136520,pc_1365,co_balance_11050,True,True
pc_136525,CALAMIDAD DOMÉSTICA,136525,pc_1365,co_balance_11050,True,True
pc_136530,RESPONSABILIDADES,136530,pc_1365,co_balance_11050,True,True
pc_136595,OTROS,136595,pc_1365,co_balance_11050,True,True
pc_1370,PRÉSTAMOS A PARTICULARES,1370,pc_13,,,
pc_137005,CON GARANTÍA REAL,137005,pc_1370,co_balance_11050,True,True
pc_137010,CON GARANTÍA PERSONAL,137010,pc_1370,co_balance_11050,True,True
pc_1380,DEUDORES VARIOS,1380,pc_13,,,
pc_138005,DEPOSITARIOS,138005,pc_1380,co_balance_11050,True,True
pc_138010,COMISIONISTAS DE BOLSAS,138010,pc_1380,co_balance_11050,True,True
pc_138015,FONDO DE INVERSIÓN,138015,pc_1380,co_balance_11050,True,True
pc_138020,CUENTAS POR COBRAR DE TERCEROS,138020,pc_1380,co_balance_11050,True,True
pc_138025,PAGOS POR CUENTA DE TERCEROS,138025,pc_1380,co_balance_11050,True,True
pc_138030,FONDOS DE INVERSIÓN SOCIAL,138030,pc_1380,co_balance_11050,True,True
pc_138095,OTROS,138095,pc_1380,co_balance_11050,True,True
pc_1385,DERECHOS DE RECOMPRA DE CARTERA NEGOCIADA,1385,pc_13,,,
pc_1390,DEUDAS DE DIFÍCIL COBRO,1390,pc_13,,,
pc_1399,PROVISIONES,1399,pc_13,,,
pc_139905,CLIENTES,139905,pc_1399,co_balance_11130,True,True
pc_139910,CUENTAS CORRIENTES COMERCIALES,139910,pc_1399,co_balance_11130,True,True
pc_139915,CUENTAS POR COBRAR A CASA MATRIZ,139915,pc_1399,co_balance_11130,True,True
pc_139920,CUENTAS POR COBRAR A VINCULADOS ECONÓMICOS,139920,pc_1399,co_balance_11130,True,True
pc_139925,CUENTAS POR COBRAR A SOCIOS Y ACCIONISTAS,139925,pc_1399,co_balance_11130,True,True
pc_139930,ANTICIPOS Y AVANCES,139930,pc_1399,co_balance_11130,True,True
pc_139932,CUENTAS DE OPERACIÓN CONJUNTA,139932,pc_1399,co_balance_11130,True,True
pc_139935,DEPÓSITOS,139935,pc_1399,co_balance_11130,True,True
pc_139940,PROMESAS DE COMPRAVENTA,139940,pc_1399,co_balance_11130,True,True
pc_139945,INGRESOS POR COBRAR,139945,pc_1399,co_balance_11130,True,True
pc_139950,RETENCIÓN SOBRE CONTRATOS,139950,pc_1399,co_balance_11130,True,True
pc_139955,RECLAMACIONES,139955,pc_1399,co_balance_11130,True,True
pc_139960,CUENTAS POR COBRAR A TRABAJADORES,139960,pc_1399,co_balance_11130,True,True
pc_139965,PRÉSTAMOS A PARTICULARES,139965,pc_1399,co_balance_11130,True,True
pc_139975,DEUDORES VARIOS,139975,pc_1399,co_balance_11130,True,True
pc_139980,DERECHOS DE RECOMPRA DE CARTERA NEGOCIADA,139980,pc_1399,co_balance_11130,True,True
pc_14,INVENTARIOS,14,pc_1,,,
pc_1405,MATERIAS PRIMAS,1405,pc_14,,,
pc_1410,PRODUCTOS EN PROCESO,1410,pc_14,,,
pc_1420,CONTRATOS EN EJECUCIÓN,1420,pc_14,,,
pc_1430,PRODUCTOS TERMINADOS,1430,pc_14,,,
pc_1435,MERCANCÍAS NO FABRICADAS POR LA EMPRESA,1435,pc_14,,,
pc_143501,MERCANCÍAS,143501,pc_1435,co_balance_11070,True,True
pc_1455,"MATERIALES, REPUESTOS Y ACCESORIOS",1455,pc_14,,,
pc_1460,ENVASES Y EMPAQUES,1460,pc_14,,,
pc_15,"PROPIEDADES, PLANTA Y EQUIPO",15,pc_1,,,
pc_1504,TERRENOS,1504,pc_15,,,
pc_1506,MATERIALES PROYECTOS PETROLEROS,1506,pc_15,,,
pc_1508,CONSTRUCCIONES EN CURSO,1508,pc_15,,,
pc_1512,MAQUINARIA Y EQUIPOS EN MONTAJE,1512,pc_15,,,
pc_1516,CONSTRUCCIONES Y EDIFICACIONES,1516,pc_15,,,
pc_151605,EDIFICIOS,151605,pc_1516,co_balance_12080,False,True
pc_151610,OFICINAS,151610,pc_1516,co_balance_12080,False,True
pc_151615,ALMACENES,151615,pc_1516,co_balance_12080,False,True
pc_1520,MAQUINARIA Y EQUIPO,1520,pc_15,,,
pc_1524,EQUIPO DE OFICINA,1524,pc_15,,,
pc_152405,MUEBLES Y ENSERES,152405,pc_1524,co_balance_12080,False,True
pc_152410,EQUIPOS,152410,pc_1524,co_balance_12080,False,True
pc_152495,OTROS,152495,pc_1524,co_balance_12080,False,True
pc_1528,EQUIPO DE COMPUTACIÓN Y COMUNICACIÓN,1528,pc_15,,,
pc_152805,EQUIPOS DE PROCESAMIENTO DE DATOS,152805,pc_1528,co_balance_12080,False,True
pc_152810,EQUIPOS DE TELECOMUNICACIONES,152810,pc_1528,co_balance_12080,False,True
pc_152815,EQUIPOS DE RADIO,152815,pc_1528,co_balance_12080,False,True
pc_152820,SATÉLITES Y ANTENAS,152820,pc_1528,co_balance_12080,False,True
pc_152825,LÍNEAS TELEFÓNICAS,152825,pc_1528,co_balance_12080,False,True
pc_152895,OTROS,152895,pc_1528,co_balance_12080,False,True
pc_1532,EQUIPO MÉDICO-CIENTÍFICO,1532,pc_15,,,
pc_1536,EQUIPO DE HOTELES Y RESTAURANTES,1536,pc_15,,,
pc_1540,FLOTA Y EQUIPO DE TRANSPORTE,1540,pc_15,,,
pc_1556,"ACUEDUCTOS, PLANTAS Y REDES",1556,pc_15,,,
pc_1562,ENVASES Y EMPAQUES,1562,pc_15,,,
pc_1584,SEMOVIENTES,1584,pc_15,,,
pc_1588,"PROPIEDADES, PLANTA Y EQUIPO EN TRÁNSITO",1588,pc_15,,,
pc_1592,DEPRECIACIÓN ACUMULADA,1592,pc_15,,,
pc_1596,DEPRECIACIÓN DIFERIDA,1596,pc_15,,,
pc_1597,AMORTIZACIÓN ACUMULADA,1597,pc_15,,,
pc_1598,AGOTAMIENTO ACUMULADO,1598,pc_15,,,
pc_1599,PROVISIONES,1599,pc_15,,,
pc_16,INTANGIBLES,16,pc_1,,,
pc_1605,CRÉDITO MERCANTIL,1605,pc_16,,,
pc_160505,FORMADO O ESTIMADO,160505,pc_1605,co_balance_12070,False,True
pc_160510,ADQUIRIDO O COMPRADO,160510,pc_1605,co_balance_12070,False,True
pc_1610,MARCAS,1610,pc_16,,,
pc_161005,ADQUIRIDAS,161005,pc_1610,co_balance_12070,False,True
pc_161010,FORMADAS,161010,pc_1610,co_balance_12070,False,True
pc_1615,PATENTES,1615,pc_16,,,
pc_161505,ADQUIRIDAS,161505,pc_1615,co_balance_12070,False,True
pc_161510,FORMADAS,161510,pc_1615,co_balance_12070,False,True
pc_1620,CONCESIONES Y FRANQUICIAS,1620,pc_16,,,
pc_162005,CONCESIONES,162005,pc_1620,co_balance_12070,False,True
pc_162010,FRANQUICIAS,162010,pc_1620,co_balance_12070,False,True
pc_1625,DERECHOS,1625,pc_16,,,
pc_1630,KNOW HOW,1630,pc_16,,,
pc_1635,LICENCIAS,1635,pc_16,,,
pc_1698,DEPRECIACIÓN Y/O AMORTIZACIÓN ACUMULADA,1698,pc_16,,,
pc_169805,CRÉDITO MERCANTIL,169805,pc_1698,co_balance_12070,False,True
pc_169810,MARCAS,169810,pc_1698,co_balance_12070,False,True
pc_169815,PATENTES,169815,pc_1698,co_balance_12070,False,True
pc_169820,CONCESIONES Y FRANQUICIAS,169820,pc_1698,co_balance_12070,False,True
pc_169830,DERECHOS,169830,pc_1698,co_balance_12070,False,True
pc_169835,KNOW HOW,169835,pc_1698,co_balance_12070,False,True
pc_169840,LICENCIAS,169840,pc_1698,co_balance_12070,False,True
pc_1699,PROVISIONES,1699,pc_16,,,
pc_17,DIFERIDOS,17,pc_1,,,
pc_1705,GASTOS PAGADOS POR ANTICIPADO,1705,pc_17,,,
pc_170505,INTERESES,170505,pc_1705,co_balance_12140,False,True
pc_170510,HONORARIOS,170510,pc_1705,co_balance_12140,False,True
pc_170515,COMISIONES,170515,pc_1705,co_balance_12140,False,True
pc_170520,SEGUROS Y FIANZAS,170520,pc_1705,co_balance_12140,False,True
pc_170525,ARRENDAMIENTOS,170525,pc_1705,co_balance_12140,False,True
pc_170530,BODEGAJES,170530,pc_1705,co_balance_12140,False,True
pc_170535,MANTENIMIENTO EQUIPOS,170535,pc_1705,co_balance_12140,False,True
pc_170540,SERVICIOS,170540,pc_1705,co_balance_12140,False,True
pc_170545,SUSCRIPCIONES,170545,pc_1705,co_balance_12140,False,True
pc_1710,CARGOS DIFERIDOS,1710,pc_17,,,
pc_171004,ORGANIZACIÓN Y PREOPERATIVOS,171004,pc_1710,co_balance_12140,False,True
pc_171008,REMODELACIONES,171008,pc_1710,co_balance_12140,False,True
pc_171012,"ESTUDIOS, INVESTIGACIONES Y PROYECTOS",171012,pc_1710,co_balance_12140,False,True
pc_171016,PROGRAMAS PARA COMPUTADOR (SOFTWARE),171016,pc_1710,co_balance_12140,False,True
pc_171020,ÚTILES Y PAPELERÍA,171020,pc_1710,co_balance_12140,False,True
pc_171024,MEJORAS A PROPIEDADES AJENAS,171024,pc_1710,co_balance_12140,False,True
pc_171028,CONTRIBUCIONES Y AFILIACIONES,171028,pc_1710,co_balance_12140,False,True
pc_171032,ENTRENAMIENTO DE PERSONAL,171032,pc_1710,co_balance_12140,False,True
pc_171036,FERIAS Y EXPOSICIONES,171036,pc_1710,co_balance_12140,False,True
pc_171040,LICENCIAS,171040,pc_1710,co_balance_12140,False,True
pc_171044,"PUBLICIDAD, PROPAGANDA Y PROMOCIÓN",171044,pc_1710,co_balance_12140,False,True
pc_171048,ELEMENTOS DE ASEO Y CAFETERÍA,171048,pc_1710,co_balance_12140,False,True
pc_171052,MOLDES Y TROQUELES,171052,pc_1710,co_balance_12140,False,True
pc_171056,INSTRUMENTAL QUIRÚRGICO,171056,pc_1710,co_balance_12140,False,True
pc_171060,DOTACIÓN Y SUMINISTRO A TRABAJADORES,171060,pc_1710,co_balance_12140,False,True
pc_171064,ELEMENTOS DE ROPERÍA Y LENCERÍA,171064,pc_1710,co_balance_12140,False,True
pc_171068,LOZA Y CRISTALERÍA,171068,pc_1710,co_balance_12140,False,True
pc_171069,PLATERÍA,171069,pc_1710,co_balance_12140,False,True
pc_171070,CUBIERTERÍA,171070,pc_1710,co_balance_12140,False,True
pc_171076,IMPUESTO DE RENTA DIFERIDO – DÉBITOS POR DIFERENCIAS TEMPORALES,171076,pc_1710,co_balance_12140,False,True
pc_171080,CONCURSOS Y LICITACIONES,171080,pc_1710,co_balance_12140,False,True
pc_1730,CARGOS POR CORRECCIÓN MONETARIA DIFERIDA*,1730,pc_17,,,
pc_1798,AMORTIZACIÓN ACUMULADA,1798,pc_17,,,
pc_18,OTROS ACTIVOS,18,pc_1,,,
pc_1895,DIVERSOS,1895,pc_18,,,
pc_189505,MÁQUINAS PORTEADORAS,189505,pc_1895,co_balance_12160,False,True
pc_189510,BIENES ENTREGADOS EN COMODATO,189510,pc_1895,co_balance_12160,False,True
pc_189515,AMORTIZACIÓN ACUMULADA DE BIENES ENTREGADOS EN COMODATO (CR),189515,pc_1895,co_balance_12160,False,True
pc_189520,BIENES RECIBIDOS EN PAGO,189520,pc_1895,co_balance_12160,False,True
pc_189525,DERECHOS SUCESORALES,189525,pc_1895,co_balance_12160,False,True
pc_189530,ESTAMPILLAS,189530,pc_1895,co_balance_12160,False,True
pc_189595,OTROS,189595,pc_1895,co_balance_12160,False,True
pc_1899,PROVISIONES,1899,pc_18,,,
pc_189905,BIENES DE ARTE Y CULTURA,189905,pc_1899,co_balance_12160,False,True
pc_189995,DIVERSOS,189995,pc_1899,co_balance_12160,False,True
pc_19,VALORIZACIONES,19,pc_1,,,
pc_1905,DE INVERSIONES,1905,pc_19,,,
pc_190505,ACCIONES,190505,pc_1905,co_balance_12010,False,True
pc_190510,CUOTAS O PARTES DE INTERÉS SOCIAL,190510,pc_1905,co_balance_12010,False,True
pc_190515,DERECHOS FIDUCIARIOS,190515,pc_1905,co_balance_12010,False,True
pc_1910,"DE PROPIEDADES, PLANTA Y EQUIPO",1910,pc_19,,,
pc_1995,DE OTROS ACTIVOS,1995,pc_19,,,
pc_2,PASIVO,2,pc,,,
pc_21,OBLIGACIONES FINANCIERAS,21,pc_2,,,
pc_2105,BANCOS NACIONALES,2105,pc_21,,,
pc_210505,SOBREGIROS,210505,pc_2105,co_balance_22102,True,True
pc_210510,PAGARÉS,210510,pc_2105,co_balance_22201,True,True
pc_210515,CARTAS DE CRÉDITO,210515,pc_2105,co_balance_22102,True,True
pc_210520,ACEPTACIONES BANCARIAS,210520,pc_2105,co_balance_22102,True,True
pc_2110,BANCOS DEL EXTERIOR,2110,pc_21,,,
pc_211005,SOBREGIROS,211005,pc_2110,co_balance_22102,True,True
pc_211010,PAGARÉS,211010,pc_2110,co_balance_22201,True,True
pc_211015,CARTAS DE CRÉDITO,211015,pc_2110,co_balance_22102,True,True
pc_211020,ACEPTACIONES BANCARIAS,211020,pc_2110,co_balance_22102,True,True
pc_2115,CORPORACIONES FINANCIERAS,2115,pc_21,,,
pc_211505,PAGARÉS,211505,pc_2115,co_balance_22201,True,True
pc_211510,ACEPTACIONES FINANCIERAS,211510,pc_2115,co_balance_22102,True,True
pc_211515,CARTAS DE CRÉDITO,211515,pc_2115,co_balance_22102,True,True
pc_211520,CONTRATOS DE ARRENDAMIENTO FINANCIERO (LEASING),211520,pc_2115,co_balance_22102,True,True
pc_2120,COMPAÑÍAS DE FINANCIAMIENTO COMERCIAL**,2120,pc_21,,,
pc_212005,PAGARÉS,212005,pc_2120,co_balance_22201,True,True
pc_212010,ACEPTACIONES FINANCIERAS,212010,pc_2120,co_balance_22102,True,True
pc_212020,CONTRATOS DE ARRENDAMIENTO FINANCIERO (LEASING),212020,pc_2120,co_balance_22102,True,True
pc_2125,CORPORACIONES DE AHORRO Y VIVIENDA,2125,pc_21,,,
pc_212505,SOBREGIROS,212505,pc_2125,co_balance_22102,True,True
pc_212510,PAGARÉS,212510,pc_2125,co_balance_22201,True,True
pc_212515,HIPOTECARIAS,212515,pc_2125,co_balance_22102,True,True
pc_2130,ENTIDADES FINANCIERAS DEL EXTERIOR,2130,pc_21,,,
pc_2135,COMPROMISOS DE RECOMPRA DE INVERSIONES NEGOCIADAS,2135,pc_21,,,
pc_2140,COMPROMISOS DE RECOMPRA DE CARTERA NEGOCIADA,2140,pc_21,,,
pc_2145,OBLIGACIONES GUBERNAMENTALES,2145,pc_21,,,
pc_214505,GOBIERNO NACIONAL,214505,pc_2145,co_balance_22109,True,True
pc_214510,ENTIDADES OFICIALES,214510,pc_2145,co_balance_22203,True,True
pc_2195,OTRAS OBLIGACIONES,2195,pc_21,,,
pc_219505,PARTICULARES,219505,pc_2195,co_balance_22109,True,True
pc_219510,COMPAÑÍAS VINCULADAS,219510,pc_2195,co_balance_22109,True,True
pc_219515,CASA MATRIZ,219515,pc_2195,co_balance_22109,True,True
pc_219520,SOCIOS O ACCIONISTAS,219520,pc_2195,co_balance_22109,True,True
pc_219525,FONDOS Y COOPERATIVAS,219525,pc_2195,co_balance_22109,True,True
pc_219530,DIRECTORES,219530,pc_2195,co_balance_22109,True,True
pc_219595,OTRAS,219595,pc_2195,co_balance_22109,True,True
pc_22,PROVEEDORES,22,pc_2,,,
pc_2205,NACIONALES,2205,pc_22,,,
pc_220505,PROVEEDORES NACIONALES,220505,pc_2205,co_balance_22101,True,True
pc_2210,DEL EXTERIOR,2210,pc_22,,,
pc_2215,CUENTAS CORRIENTES COMERCIALES,2215,pc_22,,,
pc_2220,CASA MATRIZ,2220,pc_22,,,
pc_2225,COMPAÑÍAS VINCULADAS,2225,pc_22,,,
pc_23,CUENTAS POR PAGAR,23,pc_2,,,
pc_2305,CUENTAS CORRIENTES COMERCIALES,2305,pc_23,,,
pc_2310,A CASA MATRIZ,2310,pc_23,,,
pc_2315,A COMPAÑÍAS VINCULADAS,2315,pc_23,,,
pc_2320,A CONTRATISTAS,2320,pc_23,,,
pc_2330,ÓRDENES DE COMPRA POR UTILIZAR,2330,pc_23,,,
pc_2335,COSTOS Y GASTOS POR PAGAR,2335,pc_23,,,
pc_233505,GASTOS FINANCIEROS,233505,pc_2335,co_balance_22109,True,True
pc_233510,GASTOS LEGALES,233510,pc_2335,co_balance_22109,True,True
pc_233515,"LIBROS, SUSCRIPCIONES, PERIÓDICOS Y REVISTAS",233515,pc_2335,co_balance_22109,True,True
pc_233520,COMISIONES,233520,pc_2335,co_balance_22109,True,True
pc_233525,HONORARIOS,233525,pc_2335,co_balance_22109,True,True
pc_233530,SERVICIOS TÉCNICOS,233530,pc_2335,co_balance_22109,True,True
pc_233535,SERVICIOS DE MANTENIMIENTO,233535,pc_2335,co_balance_22109,True,True
pc_233540,ARRENDAMIENTOS,233540,pc_2335,co_balance_22109,True,True
pc_233545,"TRANSPORTES, FLETES Y ACARREOS",233545,pc_2335,co_balance_22109,True,True
pc_233550,SERVICIOS PÚBLICOS,233550,pc_2335,co_balance_22109,True,True
pc_233555,SEGUROS,233555,pc_2335,co_balance_22109,True,True
pc_233560,GASTOS DE VIAJE,233560,pc_2335,co_balance_22109,True,True
pc_233565,GASTOS DE REPRESENTACIÓN Y RELACIONES PÚBLICAS,233565,pc_2335,co_balance_22109,True,True
pc_233570,SERVICIOS ADUANEROS,233570,pc_2335,co_balance_22109,False,True
pc_233595,OTROS,233595,pc_2335,co_balance_22109,False,True
pc_2340,INSTALAMENTOS POR PAGAR,2340,pc_23,,,
pc_2345,ACREEDORES OFICIALES,2345,pc_23,,,
pc_2350,REGALÍAS POR PAGAR,2350,pc_23,,,
pc_2355,DEUDAS CON ACCIONISTAS O SOCIOS,2355,pc_23,,,
pc_235505,ACCIONISTAS,235505,pc_2355,co_balance_22109,True,True
pc_235510,SOCIOS,235510,pc_2355,co_balance_22109,True,True
pc_2357,DEUDAS CON DIRECTORES,2357,pc_23,,,
pc_2360,DIVIDENDOS O PARTICIPACIONES POR PAGAR,2360,pc_23,,,
pc_236005,DIVIDENDOS,236005,pc_2360,co_balance_22109,True,True
pc_236010,PARTICIPACIONES,236010,pc_2360,co_balance_22109,True,True
pc_2365,RETENCIÓN EN LA FUENTE,2365,pc_23,,,
pc_236505,SALARIOS Y PAGOS LABORALES,236505,pc_2365,co_balance_22108,True,True
pc_236510,DIVIDENDOS Y/O PARTICIPACIONES,236510,pc_2365,co_balance_22108,True,True
pc_236515,HONORARIOS,236515,pc_2365,,,
pc_236520,COMISIONES,236520,pc_2365,co_balance_22108,True,True
pc_236525,SERVICIOS,236525,pc_2365,,,
pc_236530,ARRENDAMIENTOS,236530,pc_2365,co_balance_22108,True,True
pc_236535,RENDIMIENTOS FINANCIEROS,236535,pc_2365,co_balance_22108,True,True
pc_236540,COMPRAS,236540,pc_2365,,,
pc_236545,"LOTERÍAS, RIFAS, APUESTAS Y SIMILARES",236545,pc_2365,co_balance_22108,True,True
pc_236550,POR PAGOS AL EXTERIOR,236550,pc_2365,co_balance_22108,True,True
pc_236555,POR INGRESOS OBTENIDOS EN EL EXTERIOR,236555,pc_2365,co_balance_22108,True,True
pc_236560,"ENAJENACIÓN PROPIEDADES PLANTA Y EQUIPO, PERSONAS NATURALES",236560,pc_2365,co_balance_22108,True,True
pc_236565,POR IMPUESTO DE TIMBRE,236565,pc_2365,co_balance_22108,True,True
pc_236570,OTRAS RETENCIONES Y PATRIMONIO,236570,pc_2365,co_balance_22108,True,True
pc_236575,AUTORRETENCIONES,236575,pc_2365,co_balance_22108,True,True
pc_2367,IMPUESTO A LAS VENTAS RETENIDO,2367,pc_23,,,
pc_2368,IMPUESTO DE INDUSTRIA Y COMERCIO RETENIDO,2368,pc_23,,,
pc_2370,RETENCIONES Y APORTES DE NÓMINA,2370,pc_23,,,
pc_237005,"APORTES A ENTIDADES PROMOTORAS DE SALUD, EPS",237005,pc_2370,co_balance_22101,True,True
pc_237006,"APORTES A ADMINISTRADORAS DE RIESGOS PROFESIONALES, ARP",237006,pc_2370,co_balance_22101,True,True
pc_237010,"APORTES AL ICBF, SENA Y CAJAS DE COMPENSACIÓN",237010,pc_2370,co_balance_22101,True,True
pc_237015,APORTES AL FIC,237015,pc_2370,co_balance_22101,True,True
pc_237025,EMBARGOS JUDICIALES,237025,pc_2370,co_balance_22101,True,True
pc_237030,LIBRANZAS,237030,pc_2370,co_balance_22101,True,True
pc_237035,SINDICATOS,237035,pc_2370,co_balance_22101,True,True
pc_237040,COOPERATIVAS,237040,pc_2370,co_balance_22101,True,True
pc_237045,FONDOS,237045,pc_2370,co_balance_22101,True,True
pc_237095,OTROS,237095,pc_2370,co_balance_22109,True,True
pc_2375,CUOTAS POR DEVOLVER,2375,pc_23,,,
pc_2380,ACREEDORES VARIOS,2380,pc_23,,,
pc_238005,DEPOSITARIOS,238005,pc_2380,co_balance_22109,True,True
pc_238010,COMISIONISTAS DE BOLSAS,238010,pc_2380,co_balance_22109,True,True
pc_238015,SOCIEDAD ADMINISTRADORA-FONDOS DE INVERSIÓN,238015,pc_2380,co_balance_22109,True,True
pc_238020,REINTEGROS POR PAGAR,238020,pc_2380,co_balance_22109,True,True
pc_238025,FONDO DE PERSEVERANCIA,238025,pc_2380,co_balance_22109,True,True
pc_238030,FONDOS DE CESANTÍAS Y/O PENSIONES,238030,pc_2380,co_balance_22101,True,True
pc_238035,DONACIONES ASIGNADAS POR PAGAR,238035,pc_2380,co_balance_22101,True,True
pc_238095,OTROS,238095,pc_2380,co_balance_22101,True,True
pc_24,"IMPUESTOS, GRAVÁMENES Y TASAS",24,pc_2,,,
pc_2404,DE RENTA Y COMPLEMENTARIOS,2404,pc_24,,,
pc_240405,VIGENCIA FISCAL CORRIENTE,240405,pc_2404,co_balance_22108,True,True
pc_240410,VIGENCIAS FISCALES ANTERIORES,240410,pc_2404,co_balance_22108,True,True
pc_2408,IMPUESTO SOBRE LAS VENTAS POR PAGAR,2408,pc_24,,,
pc_240801,IVA DESCONTABLE,240801,pc_2408,,,
pc_240802,IVA GENERADO,240802,pc_2408,,,
pc_2412,DE INDUSTRIA Y COMERCIO,2412,pc_24,,,
pc_241205,VIGENCIA FISCAL CORRIENTE,241205,pc_2412,co_balance_22108,True,True
pc_241210,VIGENCIAS FISCALES ANTERIORES,241210,pc_2412,co_balance_22108,True,True
pc_2416,A LA PROPIEDAD RAÍZ,2416,pc_24,,,
pc_2420,DERECHOS SOBRE INSTRUMENTOS PÚBLICOS,2420,pc_24,,,
pc_2424,DE VALORIZACIÓN,2424,pc_24,,,
pc_242405,VIGENCIA FISCAL CORRIENTE,242405,pc_2424,co_balance_22108,True,True
pc_242410,VIGENCIAS FISCALES ANTERIORES,242410,pc_2424,co_balance_22108,True,True
pc_2428,DE TURISMO,2428,pc_24,,,
pc_2432,TASA POR UTILIZACIÓN DE PUERTOS,2432,pc_24,,,
pc_2436,DE VEHÍCULOS,2436,pc_24,,,
pc_243605,VIGENCIA FISCAL CORRIENTE,243605,pc_2436,co_balance_22108,True,True
pc_243610,VIGENCIAS FISCALES ANTERIORES,243610,pc_2436,co_balance_22108,True,True
pc_25,OBLIGACIONES LABORALES,25,pc_2,,,
pc_2505,SALARIOS POR PAGAR,2505,pc_25,,,
pc_250505,SALARIOS POR PAGAR,250505,pc_2505,co_balance_22101,True,True
pc_2510,CESANTÍAS CONSOLIDADAS,2510,pc_25,,,
pc_251005,CESANTÍAS,251005,pc_2510,co_balance_22101,True,True
pc_251010,LEY 50 DE 1990 Y NORMAS POSTERIORES,251010,pc_2510,co_balance_22101,True,True
pc_2515,INTERESES SOBRE CESANTÍAS,2515,pc_25,,,
pc_251505,INTERESES DE CESANTÍAS,251505,pc_2515,co_balance_22101,True,True
pc_2520,PRIMA DE SERVICIOS,2520,pc_25,,,
pc_252005,PRIMA DE SERVICIOS,252005,pc_2520,co_balance_22101,True,True
pc_2525,VACACIONES CONSOLIDADAS,2525,pc_25,,,
pc_252505,VACACIONES CONSOLIDADAS,252505,pc_2525,co_balance_22101,True,True
pc_2530,PRESTACIONES EXTRALEGALES,2530,pc_25,,,
pc_253005,PRIMAS,253005,pc_2530,co_balance_22101,True,True
pc_253010,AUXILIOS,253010,pc_2530,co_balance_22101,True,True
pc_253015,DOTACIÓN Y SUMINISTRO A TRABAJADORES,253015,pc_2530,co_balance_22101,True,True
pc_253020,BONIFICACIONES,253020,pc_2530,co_balance_22101,True,True
pc_253025,SEGUROS,253025,pc_2530,co_balance_22101,True,True
pc_253095,OTRAS,253095,pc_2530,co_balance_22101,True,True
pc_2532,PENSIONES POR PAGAR,2532,pc_25,,,
pc_2535,CUOTAS PARTES PENSIONES DE JUBILACIÓN,2535,pc_25,,,
pc_2540,INDEMNIZACIONES LABORALES,2540,pc_25,,,
pc_26,PASIVOS ESTIMADOS Y PROVISIONES,26,pc_2,,,
pc_2605,PARA COSTOS Y GASTOS,2605,pc_26,,,
pc_260505,INTERESES,260505,pc_2605,co_balance_22107,True,True
pc_260510,COMISIONES,260510,pc_2605,co_balance_22107,True,True
pc_260515,HONORARIOS,260515,pc_2605,co_balance_22107,True,True
pc_260520,SERVICIOS TÉCNICOS,260520,pc_2605,co_balance_22107,True,True
pc_260525,"TRANSPORTES, FLETES Y ACARREOS",260525,pc_2605,co_balance_22107,True,True
pc_260530,GASTOS DE VIAJE,260530,pc_2605,co_balance_22107,True,True
pc_260535,SERVICIOS PÚBLICOS,260535,pc_2605,co_balance_22107,True,True
pc_260540,REGALÍAS,260540,pc_2605,co_balance_22107,True,True
pc_260545,GARANTÍAS,260545,pc_2605,co_balance_22107,True,True
pc_260550,MATERIALES Y REPUESTOS,260550,pc_2605,co_balance_22107,True,True
pc_2610,PARA OBLIGACIONES LABORALES,2610,pc_26,,,
pc_2615,PARA OBLIGACIONES FISCALES,2615,pc_26,,,
pc_261505,DE RENTA Y COMPLEMENTARIOS,261505,pc_2615,co_balance_22109,True,True
pc_261510,DE INDUSTRIA Y COMERCIO,261510,pc_2615,co_balance_22109,True,True
pc_261515,TASA POR UTILIZACIÓN DE PUERTOS,261515,pc_2615,co_balance_22109,True,True
pc_261520,DE VEHÍCULOS,261520,pc_2615,co_balance_22109,True,True
pc_261525,DE HIDROCARBUROS Y MINAS,261525,pc_2615,co_balance_22109,True,True
pc_2620,PENSIONES DE JUBILACIÓN,2620,pc_26,,,
pc_262005,CÁLCULO ACTUARIAL PENSIONES DE JUBILACIÓN,262005,pc_2620,co_balance_22109,True,True
pc_262010,PENSIONES DE JUBILACIÓN POR AMORTIZAR (DB),262010,pc_2620,co_balance_22109,True,True
pc_2625,PARA OBRAS DE URBANISMO,2625,pc_26,,,
pc_262505,ACUEDUCTO Y ALCANTARILLADO,262505,pc_2625,co_balance_22109,True,True
pc_262510,ENERGÍA ELÉCTRICA,262510,pc_2625,co_balance_22109,True,True
pc_262515,TELÉFONOS,262515,pc_2625,co_balance_22109,True,True
pc_2630,PARA MANTENIMIENTO Y REPARACIONES,2630,pc_26,,,
pc_2635,PARA CONTINGENCIAS,2635,pc_26,,,
pc_263505,MULTAS Y SANCIONES AUTORIDADES ADMINISTRATIVAS,263505,pc_2635,co_balance_22109,True,True
pc_263510,INTERESES POR MULTAS Y SANCIONES,263510,pc_2635,co_balance_22109,True,True
pc_263515,RECLAMOS,263515,pc_2635,co_balance_22109,True,True
pc_263520,LABORALES,263520,pc_2635,co_balance_22109,True,True
pc_263525,CIVILES,263525,pc_2635,co_balance_22109,True,True
pc_263530,PENALES,263530,pc_2635,co_balance_22109,True,True
pc_263535,ADMINISTRATIVOS,263535,pc_2635,co_balance_22109,True,True
pc_263540,COMERCIALES,263540,pc_2635,co_balance_22109,True,True
pc_263595,OTRAS,263595,pc_2635,co_balance_22203,True,True
pc_2640,PARA OBLIGACIONES DE GARANTÍAS,2640,pc_26,,,
pc_2695,PROVISIONES DIVERSAS,2695,pc_26,,,
pc_27,DIFERIDOS,27,pc_2,,,
pc_2705,INGRESOS RECIBIDOS POR ANTICIPADO,2705,pc_27,,,
pc_270505,INTERESES,270505,pc_2705,co_balance_22110,False,True
pc_270510,COMISIONES,270510,pc_2705,co_balance_22110,False,True
pc_270515,ARRENDAMIENTOS,270515,pc_2705,co_balance_22110,False,True
pc_270520,HONORARIOS,270520,pc_2705,co_balance_22110,False,True
pc_270525,SERVICIOS TÉCNICOS,270525,pc_2705,co_balance_22110,False,True
pc_270530,DE SUSCRIPTORES,270530,pc_2705,co_balance_22110,False,True
pc_270535,"TRANSPORTES, FLETES Y ACARREOS",270535,pc_2705,co_balance_22110,False,True
pc_270540,MERCANCÍA EN TRÁNSITO YA VENDIDA,270540,pc_2705,co_balance_22110,False,True
pc_270545,MATRÍCULAS Y PENSIONES,270545,pc_2705,co_balance_22110,False,True
pc_270550,CUOTAS DE ADMINISTRACIÓN,270550,pc_2705,co_balance_22110,False,True
pc_2710,ABONOS DIFERIDOS,2710,pc_27,,,
pc_271005,REAJUSTE DEL SISTEMA,271005,pc_2710,co_balance_22110,False,True
pc_2715,UTILIDAD DIFERIDA EN VENTAS A PLAZOS,2715,pc_27,,,
pc_2720,CRÉDITO POR CORRECCIÓN MONETARIA DIFERIDA*,2720,pc_27,,,
pc_2725,IMPUESTOS DIFERIDOS,2725,pc_27,,,
pc_272505,POR DEPRECIACIÓN FLEXIBLE,272505,pc_2725,co_balance_22110,False,True
pc_272595,DIVERSOS,272595,pc_2725,co_balance_22110,False,True
pc_28,OTROS PASIVOS,28,pc_2,,,
pc_2805,ANTICIPOS Y AVANCES RECIBIDOS,2805,pc_28,,,
pc_280505,DE CLIENTES,280505,pc_2805,co_balance_22110,False,True
pc_280510,SOBRE CONTRATOS,280510,pc_2805,co_balance_22110,False,True
pc_280515,PARA OBRAS EN PROCESO,280515,pc_2805,co_balance_22110,False,True
pc_280595,OTROS,280595,pc_2805,co_balance_22110,False,True
pc_2810,DEPÓSITOS RECIBIDOS,2810,pc_28,,,
pc_281005,PARA FUTURA SUSCRIPCIÓN DE ACCIONES,281005,pc_2810,co_balance_22110,False,True
pc_281010,PARA FUTURO PAGO DE CUOTAS O DERECHOS SOCIALES,281010,pc_2810,co_balance_22110,False,True
pc_281015,PARA GARANTÍA EN LA PRESTACIÓN DE SERVICIOS,281015,pc_2810,co_balance_22109,False,True
pc_281020,PARA GARANTÍA DE CONTRATOS,281020,pc_2810,co_balance_22109,False,True
pc_281025,DE LICITACIONES,281025,pc_2810,co_balance_22109,False,True
pc_281030,DE MANEJO DE BIENES,281030,pc_2810,co_balance_22109,False,True
pc_281035,FONDO DE RESERVA,281035,pc_2810,co_balance_22109,False,True
pc_2815,INGRESOS RECIBIDOS PARA TERCEROS,2815,pc_28,,,
pc_281505,VALORES RECIBIDOS PARA TERCEROS,281505,pc_2815,co_balance_22109,False,True
pc_281510,VENTA POR CUENTA DE TERCEROS,281510,pc_2815,co_balance_22109,False,True
pc_2820,CUENTAS DE OPERACIÓN CONJUNTA,2820,pc_28,,,
pc_2825,RETENCIONES A TERCEROS SOBRE CONTRATOS,2825,pc_28,,,
pc_282505,CUMPLIMIENTO OBLIGACIONES LABORALES,282505,pc_2825,co_balance_22109,False,True
pc_282510,PARA ESTABILIDAD DE OBRA,282510,pc_2825,co_balance_22109,False,True
pc_282515,GARANTÍA CUMPLIMIENTO DE CONTRATOS,282515,pc_2825,co_balance_22109,False,True
pc_2830,EMBARGOS JUDICIALES,2830,pc_28,,,
pc_283005,INDEMNIZACIONES,283005,pc_2830,co_balance_22109,False,True
pc_283010,DEPÓSITOS JUDICIALES,283010,pc_2830,co_balance_22109,False,True
pc_2835,ACREEDORES DEL SISTEMA,2835,pc_28,,,
pc_283505,CUOTAS NETAS,283505,pc_2835,co_balance_22109,False,True
pc_283510,GRUPOS EN FORMACIÓN,283510,pc_2835,co_balance_22109,False,True
pc_2840,CUENTAS EN PARTICIPACIÓN,2840,pc_28,,,
pc_2895,DIVERSOS,2895,pc_28,,,
pc_29,BONOS Y PAPELES COMERCIALES,29,pc_2,,,
pc_2905,BONOS EN CIRCULACIÓN,2905,pc_29,,,
pc_2910,BONOS OBLIGATORIAMENTE CONVERTIBLES EN ACCIONES,2910,pc_29,,,
pc_2915,PAPELES COMERCIALES,2915,pc_29,,,
pc_2920,BONOS PENSIONALES,2920,pc_29,,,
pc_2925,TÍTULOS PENSIONALES,2925,pc_29,,,
pc_3,PATRIMONIO,3,pc,,,
pc_31,CAPITAL SOCIAL,31,pc_3,,,
pc_3105,CAPITAL SUSCRITO Y PAGADO,3105,pc_31,,,
pc_310505,CAPITAL AUTORIZADO,310505,pc_3105,co_balance_21110,False,True
pc_310510,CAPITAL POR SUSCRIBIR (DB),310510,pc_3105,co_balance_21110,False,True
pc_310515,CAPITAL SUSCRITO POR COBRAR (DB),310515,pc_3105,co_balance_21110,False,True
pc_3115,APORTES SOCIALES,3115,pc_31,,,
pc_311505,CUOTAS O PARTES DE INTERÉS SOCIAL,311505,pc_3115,co_balance_21110,False,True
pc_311510,APORTES DE SOCIOS-FONDO MUTUO DE INVERSIÓN,311510,pc_3115,co_balance_21110,False,True
pc_311515,CONTRIBUCIÓN DE LA EMPRESA-FONDO MUTUO DE INVERSIÓN,311515,pc_3115,co_balance_21110,False,True
pc_311520,SUSCRIPCIONES DEL PÚBLICO,311520,pc_3115,co_balance_21110,False,True
pc_3120,CAPITAL ASIGNADO,3120,pc_31,,,
pc_3125,INVERSIÓN SUPLEMENTARIA AL CAPITAL ASIGNADO,3125,pc_31,,,
pc_3130,CAPITAL DE PERSONAS NATURALES,3130,pc_31,,,
pc_3135,APORTES DEL ESTADO,3135,pc_31,,,
pc_3140,FONDO SOCIAL,3140,pc_31,,,
pc_32,SUPERÁVIT DE CAPITAL,32,pc_3,,,
pc_3205,"PRIMA EN COLOCACIÓN DE ACCIONES, CUOTAS O PARTES DE INTERÉS SOCIAL",3205,pc_32,,,
pc_320505,PRIMA EN COLOCACIÓN DE ACCIONES,320505,pc_3205,co_balance_21130,False,True
pc_320510,PRIMA EN COLOCACIÓN DE ACCIONES POR COBRAR (DB),320510,pc_3205,co_balance_21130,False,True
pc_320515,PRIMA EN COLOCACIÓN DE CUOTAS O PARTES DE INTERÉS SOCIAL,320515,pc_3205,co_balance_21130,False,True
pc_3210,DONACIONES,3210,pc_32,,,
pc_321005,EN DINERO,321005,pc_3210,co_balance_21110,False,True
pc_321010,EN VALORES MOBILIARIOS,321010,pc_3210,co_balance_21110,False,True
pc_321015,EN BIENES MUEBLES,321015,pc_3210,co_balance_21110,False,True
pc_321020,EN BIENES INMUEBLES,321020,pc_3210,co_balance_21110,False,True
pc_321025,EN INTANGIBLES,321025,pc_3210,co_balance_21110,False,True
pc_3215,CRÉDITO MERCANTIL,3215,pc_32,,,
pc_3220,KNOW HOW,3220,pc_32,,,
pc_3225,SUPERÁVIT MÉTODO DE PARTICIPACIÓN,3225,pc_32,,,
pc_322505,DE ACCIONES,322505,pc_3225,co_balance_21160,False,True
pc_322510,DE CUOTAS O PARTES DE INTERÉS SOCIAL,322510,pc_3225,co_balance_21160,False,True
pc_33,RESERVAS,33,pc_3,,,
pc_3305,RESERVAS OBLIGATORIAS,3305,pc_33,,,
pc_330505,RESERVA LEGAL,330505,pc_3305,co_balance_21120,False,True
pc_330510,RESERVAS POR DISPOSICIONES FISCALES,330510,pc_3305,co_balance_21120,False,True
pc_330515,RESERVA PARA READQUISICIÓN DE ACCIONES,330515,pc_3305,co_balance_21120,False,True
pc_330516,ACCIONES PROPIAS READQUIRIDAS (DB),330516,pc_3305,co_balance_21120,False,True
pc_330517,RESERVA PARA READQUISICIÓN DE CUOTAS O PARTES DE INTERÉS SOCIAL,330517,pc_3305,co_balance_21120,False,True
pc_330518,CUOTAS O PARTES DE INTERÉS SOCIAL PROPIAS READQUIRIDAS (DB),330518,pc_3305,co_balance_21120,False,True
pc_3310,RESERVAS ESTATUTARIAS,3310,pc_33,,,
pc_331005,PARA FUTURAS CAPITALIZACIONES,331005,pc_3310,co_balance_21120,False,True
pc_331010,PARA REPOSICIÓN DE ACTIVOS,331010,pc_3310,co_balance_21120,False,True
pc_331015,PARA FUTUROS ENSANCHES,331015,pc_3310,co_balance_21120,False,True
pc_3315,RESERVAS OCASIONALES,3315,pc_33,,,
pc_34,REVALORIZACIÓN DEL PATRIMONIO,34,pc_3,,,
pc_3410,SANEAMIENTO FISCAL,3410,pc_34,,,
pc_35,"DIVIDENDOS O PARTICIPACIONES DECRETADOS EN ACCIONES, CUOTAS O PARTES DE INTERÉS SOCIAL",35,pc_3,,,
pc_3505,DIVIDENDOS DECRETADOS EN ACCIONES,3505,pc_35,,,
pc_3510,PARTICIPACIONES DECRETADAS EN CUOTAS O PARTES DE INTERÉS SOCIAL,3510,pc_35,,,
pc_36,RESULTADOS DEL EJERCICIO,36,pc_3,,,
pc_3605,UTILIDAD DEL EJERCICIO,3605,pc_36,,,
pc_3610,PÉRDIDA DEL EJERCICIO,3610,pc_36,,,
pc_37,RESULTADOS DE EJERCICIOS ANTERIORES,37,pc_3,,,
pc_3705,UTILIDADES ACUMULADAS,3705,pc_37,,,
pc_3710,PÉRDIDAS ACUMULADAS,3710,pc_37,,,
pc_38,SUPERÁVIT POR VALORIZACIONES,38,pc_3,,,
pc_3805,DE INVERSIONES,3805,pc_38,,,
pc_3810,"DE PROPIEDADES, PLANTA Y EQUIPO",3810,pc_38,,,
pc_3895,DE OTROS ACTIVOS,3895,pc_38,,,
pc_4,INGRESOS,4,pc,,,
pc_41,OPERACIONALES,41,pc_4,,,
pc_42,NO OPERACIONALES,42,pc_4,,,
pc_5,GASTOS,5,pc,,,
pc_51,OPERACIONALES DE ADMINISTRACIÓN,51,pc_5,,,
pc_5105,GASTOS DE PERSONAL,5105,pc_51,,,
pc_510503,SALARIO INTEGRAL,510503,pc_5105,co_pyg_44200,True,True
pc_510506,SUELDOS,510506,pc_5105,co_pyg_44200,True,True
pc_510512,JORNALES,510512,pc_5105,co_pyg_44200,True,True
pc_510515,HORAS EXTRAS Y RECARGOS,510515,pc_5105,co_pyg_44200,True,True
pc_510518,COMISIONES,510518,pc_5105,co_pyg_44200,True,True
pc_510521,VIÁTICOS,510521,pc_5105,co_pyg_44200,True,True
pc_510524,INCAPACIDADES,510524,pc_5105,co_pyg_44200,True,True
pc_510527,AUXILIO DE TRANSPORTE,510527,pc_5105,co_pyg_44200,True,True
pc_510530,CESANTÍAS,510530,pc_5105,co_pyg_44200,True,True
pc_510533,INTERESES SOBRE CESANTÍAS,510533,pc_5105,co_pyg_44200,True,True
pc_510536,PRIMA DE SERVICIOS,510536,pc_5105,co_pyg_44200,True,True
pc_510539,VACACIONES,510539,pc_5105,co_pyg_44200,True,True
pc_510542,PRIMAS EXTRALEGALES,510542,pc_5105,co_pyg_44200,True,True
pc_510545,AUXILIOS,510545,pc_5105,co_pyg_44200,True,True
pc_510548,BONIFICACIONES,510548,pc_5105,co_pyg_44200,True,True
pc_510551,DOTACIÓN Y SUMINISTRO A TRABAJADORES,510551,pc_5105,co_pyg_44200,True,True
pc_510554,SEGUROS,510554,pc_5105,co_pyg_44200,True,True
pc_510557,CUOTAS PARTES PENSIONES DE JUBILACIÓN,510557,pc_5105,co_pyg_44200,True,True
pc_510558,AMORTIZACIÓN CÁLCULO ACTUARIAL PENSIONES DE JUBILACIÓN,510558,pc_5105,co_pyg_44200,True,True
pc_510559,PENSIONES DE JUBILACIÓN,510559,pc_5105,co_pyg_44200,True,True
pc_510560,INDEMNIZACIONES LABORALES,510560,pc_5105,co_pyg_44200,True,True
pc_510561,AMORTIZACIÓN BONOS PENSIONALES,510561,pc_5105,co_pyg_44200,True,True
pc_510562,AMORTIZACIÓN TÍTULOS PENSIONALES,510562,pc_5105,co_pyg_44200,True,True
pc_510563,CAPACITACIÓN AL PERSONAL,510563,pc_5105,co_pyg_44200,True,True
pc_510566,GASTOS DEPORTIVOS Y DE RECREACIÓN,510566,pc_5105,co_pyg_44200,True,True
pc_510568,"APORTES A ADMINISTRADORAS DE RIESGOS PROFESIONALES, ARP",510568,pc_5105,co_pyg_44200,True,True
pc_510569,"APORTES A ENTIDADES PROMOTORAS DE SALUD, EPS",510569,pc_5105,co_pyg_44200,True,True
pc_510570,APORTES A FONDOS DE PENSIONES Y/O CESANTÍAS,510570,pc_5105,co_pyg_44200,True,True
pc_510572,APORTES CAJAS DE COMPENSACIÓN FAMILIAR,510572,pc_5105,co_pyg_44200,True,True
pc_510575,APORTES ICBF,510575,pc_5105,co_pyg_44200,True,True
pc_510578,SENA,510578,pc_5105,co_pyg_44200,True,True
pc_510581,APORTES SINDICALES,510581,pc_5105,co_pyg_44200,True,True
pc_510584,GASTOS MÉDICOS Y DROGAS,510584,pc_5105,co_pyg_44200,True,True
pc_510595,OTROS,510595,pc_5105,co_pyg_44200,True,True
pc_5110,HONORARIOS,5110,pc_51,,,
pc_511005,JUNTA DIRECTIVA,511005,pc_5110,co_pyg_44200,True,True
pc_511010,REVISORÍA FISCAL,511010,pc_5110,co_pyg_44200,True,True
pc_511015,AUDITORÍA EXTERNA,511015,pc_5110,co_pyg_44200,True,True
pc_511020,AVALÚOS,511020,pc_5110,co_pyg_44200,True,True
pc_511025,ASESORÍA JURÍDICA,511025,pc_5110,co_pyg_44200,True,True
pc_511030,ASESORÍA FINANCIERA,511030,pc_5110,co_pyg_44200,True,True
pc_511035,ASESORÍA TÉCNICA,511035,pc_5110,co_pyg_44200,True,True
pc_511095,OTROS,511095,pc_5110,co_pyg_44200,True,True
pc_5115,IMPUESTOS,5115,pc_51,,,
pc_511505,INDUSTRIA Y COMERCIO,511505,pc_5115,co_pyg_44200,True,True
pc_511510,DE TIMBRES,511510,pc_5115,co_pyg_44200,True,True
pc_511515,A LA PROPIEDAD RAÍZ,511515,pc_5115,co_pyg_44200,True,True
pc_511520,DERECHOS SOBRE INSTRUMENTOS PÚBLICOS,511520,pc_5115,co_pyg_44200,True,True
pc_511525,DE VALORIZACIÓN,511525,pc_5115,co_pyg_44200,True,True
pc_511530,DE TURISMO,511530,pc_5115,co_pyg_44200,True,True
pc_511535,TASA POR UTILIZACIÓN DE PUERTOS,511535,pc_5115,co_pyg_44200,True,True
pc_511540,DE VEHÍCULOS,511540,pc_5115,co_pyg_44200,True,True
pc_511545,DE ESPECTÁCULOS PÚBLICOS,511545,pc_5115,co_pyg_44200,True,True
pc_511550,CUOTAS DE FOMENTO,511550,pc_5115,co_pyg_44200,True,True
pc_511570,IVA DESCONTABLE,511570,pc_5115,co_pyg_44200,True,True
pc_511595,OTROS,511595,pc_5115,co_pyg_44200,True,True
pc_5120,ARRENDAMIENTOS,5120,pc_51,,,
pc_512005,TERRENOS,512005,pc_5120,co_pyg_44200,True,True
pc_512010,CONSTRUCCIONES Y EDIFICACIONES,512010,pc_5120,co_pyg_44200,True,True
pc_512015,MAQUINARIA Y EQUIPO,512015,pc_5120,co_pyg_44200,True,True
pc_512020,EQUIPO DE OFICINA,512020,pc_5120,co_pyg_44200,True,True
pc_512025,EQUIPO DE COMPUTACIÓN Y COMUNICACIÓN,512025,pc_5120,co_pyg_44200,True,True
pc_512030,EQUIPO MÉDICO-CIENTÍFICO,512030,pc_5120,co_pyg_44200,True,True
pc_512035,EQUIPO DE HOTELES Y RESTAURANTES,512035,pc_5120,co_pyg_44200,True,True
pc_512040,FLOTA Y EQUIPO DE TRANSPORTE,512040,pc_5120,co_pyg_44200,True,True
pc_5125,CONTRIBUCIONES Y AFILIACIONES,5125,pc_51,,,
pc_512505,CONTRIBUCIONES,512505,pc_5125,co_pyg_44200,True,True
pc_512510,AFILIACIONES Y SOSTENIMIENTO,512510,pc_5125,co_pyg_44200,True,True
pc_5130,SEGUROS,5130,pc_51,,,
pc_513005,MANEJO,513005,pc_5130,co_pyg_44200,True,True
pc_513010,CUMPLIMIENTO,513010,pc_5130,co_pyg_44200,True,True
pc_513015,CORRIENTE DÉBIL,513015,pc_5130,co_pyg_44200,True,True
pc_513020,VIDA COLECTIVA,513020,pc_5130,co_pyg_44200,True,True
pc_513025,INCENDIO,513025,pc_5130,co_pyg_44200,True,True
pc_513030,TERREMOTO,513030,pc_5130,co_pyg_44200,True,True
pc_513035,SUSTRACCIÓN Y HURTO,513035,pc_5130,co_pyg_44200,True,True
pc_513060,RESPONSABILIDAD CIVIL Y EXTRACONTRACTUAL,513060,pc_5130,co_pyg_44200,True,True
pc_513065,VUELO,513065,pc_5130,co_pyg_44200,True,True
pc_513070,ROTURA DE MAQUINARIA,513070,pc_5130,co_pyg_44200,True,True
pc_513075,OBLIGATORIO ACCIDENTE DE TRÁNSITO,513075,pc_5130,co_pyg_44200,True,True
pc_513080,LUCRO CESANTE,513080,pc_5130,co_pyg_44200,True,True
pc_513085,TRANSPORTE DE MERCANCÍA,513085,pc_5130,co_pyg_44200,True,True
pc_5135,SERVICIOS,5135,pc_51,,,
pc_513505,ASEO Y VIGILANCIA,513505,pc_5135,co_pyg_44200,True,True
pc_513510,TEMPORALES,513510,pc_5135,co_pyg_44200,True,True
pc_513515,ASISTENCIA TÉCNICA,513515,pc_5135,co_pyg_44200,True,True
pc_513520,PROCESAMIENTO ELECTRÓNICO DE DATOS,513520,pc_5135,co_pyg_44200,True,True
pc_513525,ACUEDUCTO Y ALCANTARILLADO,513525,pc_5135,co_pyg_44200,True,True
pc_513530,ENERGÍA ELÉCTRICA,513530,pc_5135,co_pyg_44200,True,True
pc_513535,TELÉFONO,513535,pc_5135,co_pyg_44200,True,True
pc_513540,"CORREO, PORTES Y TELEGRAMAS",513540,pc_5135,co_pyg_44200,True,True
pc_513545,FAX Y TÉLEX,513545,pc_5135,co_pyg_44200,True,True
pc_513550,"TRANSPORTE, FLETES Y ACARREOS",513550,pc_5135,co_pyg_44200,True,True
pc_513555,GAS,513555,pc_5135,co_pyg_44200,True,True
pc_513595,OTROS,513595,pc_5135,co_pyg_44200,True,True
pc_5140,GASTOS LEGALES,5140,pc_51,,,
pc_514005,NOTARIALES,514005,pc_5140,co_pyg_44200,True,True
pc_514010,REGISTRO MERCANTIL,514010,pc_5140,co_pyg_44200,True,True
pc_514015,TRÁMITES Y LICENCIAS,514015,pc_5140,co_pyg_44200,True,True
pc_514020,ADUANEROS,514020,pc_5140,co_pyg_44200,True,True
pc_514025,CONSULARES,514025,pc_5140,co_pyg_44200,True,True
pc_514095,OTROS,514095,pc_5140,co_pyg_44200,True,True
pc_5145,MANTENIMIENTO Y REPARACIONES,5145,pc_51,,,
pc_514505,TERRENOS,514505,pc_5145,co_pyg_44200,True,True
pc_514510,CONSTRUCCIONES Y EDIFICACIONES,514510,pc_5145,co_pyg_44200,True,True
pc_514515,MAQUINARIA Y EQUIPO,514515,pc_5145,co_pyg_44200,True,True
pc_514520,EQUIPO DE OFICINA,514520,pc_5145,co_pyg_44200,True,True
pc_514525,EQUIPO DE COMPUTACIÓN Y COMUNICACIÓN,514525,pc_5145,co_pyg_44200,True,True
pc_514530,EQUIPO MÉDICO-CIENTÍFICO,514530,pc_5145,co_pyg_44200,True,True
pc_514535,EQUIPO DE HOTELES Y RESTAURANTES,514535,pc_5145,co_pyg_44200,True,True
pc_5150,ADECUACIÓN E INSTALACIÓN,5150,pc_51,,,
pc_515005,INSTALACIONES ELÉCTRICAS,515005,pc_5150,co_pyg_44200,True,True
pc_515010,ARREGLOS ORNAMENTALES,515010,pc_5150,co_pyg_44200,True,True
pc_515015,REPARACIONES LOCATIVAS,515015,pc_5150,co_pyg_44200,True,True
pc_515095,OTROS,515095,pc_5150,co_pyg_44200,True,True
pc_5155,GASTOS DE VIAJE,5155,pc_51,,,
pc_515505,ALOJAMIENTO Y MANUTENCIÓN,515505,pc_5155,co_pyg_44200,True,True
pc_515515,PASAJES AÉREOS,515515,pc_5155,co_pyg_44200,True,True
pc_515520,PASAJES TERRESTRES,515520,pc_5155,co_pyg_44200,True,True
pc_515595,OTROS,515595,pc_5155,co_pyg_44200,True,True
pc_5160,DEPRECIACIONES,5160,pc_51,,,
pc_516005,CONSTRUCCIONES Y EDIFICACIONES,516005,pc_5160,co_pyg_44200,True,True
pc_516010,MAQUINARIA Y EQUIPO,516010,pc_5160,co_pyg_44200,True,True
pc_516015,EQUIPO DE OFICINA,516015,pc_5160,co_pyg_44200,True,True
pc_516020,EQUIPO DE COMPUTACIÓN Y COMUNICACIÓN,516020,pc_5160,co_pyg_44200,True,True
pc_516025,EQUIPO MÉDICO-CIENTÍFICO,516025,pc_5160,co_pyg_44200,True,True
pc_516030,EQUIPO DE HOTELES Y RESTAURANTES,516030,pc_5160,co_pyg_44200,True,True
pc_516035,FLOTA Y EQUIPO DE TRANSPORTE,516035,pc_5160,co_pyg_44200,True,True
pc_5165,AMORTIZACIONES,5165,pc_51,,,
pc_516505,VÍAS DE COMUNICACIÓN,516505,pc_5165,co_pyg_44200,True,True
pc_516510,INTANGIBLES,516510,pc_5165,co_pyg_44200,True,True
pc_516515,CARGOS DIFERIDOS,516515,pc_5165,co_pyg_44200,True,True
pc_516595,OTRAS,516595,pc_5165,co_pyg_44200,True,True
pc_5195,DIVERSOS,5195,pc_51,,,
pc_519505,COMISIONES,519505,pc_5195,co_pyg_44200,True,True
pc_519510,"LIBROS, SUSCRIPCIONES, PERIÓDICOS Y REVISTAS",519510,pc_5195,co_pyg_44200,True,True
pc_519515,MÚSICA AMBIENTAL,519515,pc_5195,co_pyg_44200,True,True
pc_519520,GASTOS DE REPRESENTACIÓN Y RELACIONES PÚBLICAS,519520,pc_5195,co_pyg_44200,True,True
pc_519525,ELEMENTOS DE ASEO Y CAFETERÍA,519525,pc_5195,co_pyg_44200,True,True
pc_519530,"ÚTILES, PAPELERÍA Y FOTOCOPIAS",519530,pc_5195,co_pyg_44200,True,True
pc_519535,COMBUSTIBLES Y LUBRICANTES,519535,pc_5195,co_pyg_44200,True,True
pc_519540,ENVASES Y EMPAQUES,519540,pc_5195,co_pyg_44200,True,True
pc_519545,TAXIS Y BUSES,519545,pc_5195,co_pyg_44200,True,True
pc_519550,ESTAMPILLAS,519550,pc_5195,co_pyg_44200,True,True
pc_519555,MICROFILMACIÓN,519555,pc_5195,co_pyg_44200,True,True
pc_519560,CASINO Y RESTAURANTE,519560,pc_5195,co_pyg_44200,True,True
pc_519565,PARQUEADEROS,519565,pc_5195,co_pyg_44200,True,True
pc_519570,INDEMNIZACIÓN POR DAÑOS A TERCEROS,519570,pc_5195,co_pyg_44200,True,True
pc_519595,OTROS,519595,pc_5195,co_pyg_44200,True,True
pc_5199,PROVISIONES,5199,pc_51,,,
pc_519905,INVERSIONES,519905,pc_5199,co_pyg_44200,True,True
pc_519910,DEUDORES,519910,pc_5199,co_pyg_44200,True,True
pc_519915,"PROPIEDADES, PLANTA Y EQUIPO",519915,pc_5199,co_pyg_44200,True,True
pc_519995,OTROS ACTIVOS,519995,pc_5199,co_pyg_44200,True,True
pc_52,OPERACIONALES DE VENTAS,52,pc_5,,,
pc_5205,GASTOS DE PERSONAL,5205,pc_52,,,
pc_520503,SALARIO INTEGRAL,520503,pc_5205,co_pyg_30200,True,True
pc_520506,SUELDOS,520506,pc_5205,co_pyg_30200,True,True
pc_520512,JORNALES,520512,pc_5205,co_pyg_30200,True,True
pc_520515,HORAS EXTRAS Y RECARGOS,520515,pc_5205,co_pyg_30200,True,True
pc_520518,COMISIONES,520518,pc_5205,co_pyg_30200,True,True
pc_520521,VIÁTICOS,520521,pc_5205,co_pyg_30200,True,True
pc_520524,INCAPACIDADES,520524,pc_5205,co_pyg_30200,True,True
pc_520527,AUXILIO DE TRANSPORTE,520527,pc_5205,co_pyg_30200,True,True
pc_520530,CESANTÍAS,520530,pc_5205,co_pyg_30200,True,True
pc_520533,INTERESES SOBRE CESANTÍAS,520533,pc_5205,co_pyg_30200,True,True
pc_520536,PRIMA DE SERVICIOS,520536,pc_5205,co_pyg_30200,True,True
pc_520539,VACACIONES,520539,pc_5205,co_pyg_30200,True,True
pc_520542,PRIMAS EXTRALEGALES,520542,pc_5205,co_pyg_30200,True,True
pc_520545,AUXILIOS,520545,pc_5205,co_pyg_30200,True,True
pc_520548,BONIFICACIONES,520548,pc_5205,co_pyg_30200,True,True
pc_520551,DOTACIÓN Y SUMINISTRO A TRABAJADORES,520551,pc_5205,co_pyg_30200,True,True
pc_520554,SEGUROS,520554,pc_5205,co_pyg_30200,True,True
pc_520557,CUOTAS PARTES PENSIONES DE JUBILACIÓN,520557,pc_5205,co_pyg_30200,True,True
pc_520558,AMORTIZACIÓN CÁLCULO ACTUARIAL PENSIONES DE JUBILACIÓN,520558,pc_5205,co_pyg_30200,True,True
pc_520559,PENSIONES DE JUBILACIÓN,520559,pc_5205,co_pyg_30200,True,True
pc_520560,INDEMNIZACIONES LABORALES,520560,pc_5205,co_pyg_30200,True,True
pc_520561,AMORTIZACIÓN BONOS PENSIONALES,520561,pc_5205,co_pyg_30200,True,True
pc_520562,AMORTIZACIÓN TÍTULOS PENSIONALES,520562,pc_5205,co_pyg_30200,True,True
pc_520563,CAPACITACIÓN AL PERSONAL,520563,pc_5205,co_pyg_30200,True,True
pc_520566,GASTOS DEPORTIVOS Y DE RECREACIÓN,520566,pc_5205,co_pyg_30200,True,True
pc_520568,"APORTES A ADMINISTRADORAS DE RIESGOS PROFESIONALES, ARP",520568,pc_5205,co_pyg_30200,True,True
pc_520569,"APORTES A ENTIDADES PROMOTORAS DE SALUD, EPS",520569,pc_5205,co_pyg_30200,True,True
pc_520570,APORTES A FONDOS DE PENSIONES Y/O CESANTÍAS,520570,pc_5205,co_pyg_30200,True,True
pc_520572,APOR TES CAJAS DE COMPENSACIÓN FAMILIAR,520572,pc_5205,co_pyg_30200,True,True
pc_520575,APORTES ICBF,520575,pc_5205,co_pyg_30200,True,True
pc_520578,SENA,520578,pc_5205,co_pyg_30200,True,True
pc_520581,APORTES SINDICALES,520581,pc_5205,co_pyg_30200,True,True
pc_520584,GASTOS MÉDICOS Y DROGAS,520584,pc_5205,co_pyg_30200,True,True
pc_520595,OTROS,520595,pc_5205,co_pyg_30200,True,True
pc_5210,HONORARIOS,5210,pc_52,,,
pc_521005,JUNTA DIRECTIVA,521005,pc_5210,co_pyg_30200,True,True
pc_521010,REVISORÍA FISCAL,521010,pc_5210,co_pyg_30200,True,True
pc_521015,AUDITORÍA EXTERNA,521015,pc_5210,co_pyg_30200,True,True
pc_521020,AVALÚOS,521020,pc_5210,co_pyg_30200,True,True
pc_521025,ASESORÍA JURÍDICA,521025,pc_5210,co_pyg_30200,True,True
pc_521030,ASESORÍA FINANCIERA,521030,pc_5210,co_pyg_30200,True,True
pc_521035,ASESORÍA TÉCNICA,521035,pc_5210,co_pyg_30200,True,True
pc_521095,OTROS,521095,pc_5210,co_pyg_30200,True,True
pc_5215,IMPUESTOS,5215,pc_52,,,
pc_521505,INDUSTRIA Y COMERCIO,521505,pc_5215,co_pyg_30200,True,True
pc_521510,DE TIMBRES,521510,pc_5215,co_pyg_30200,True,True
pc_521515,A LA PROPIEDAD RAÍZ,521515,pc_5215,co_pyg_30200,True,True
pc_521520,DERECHOS SOBRE INSTRUMENTOS PÚBLICOS,521520,pc_5215,co_pyg_30200,True,True
pc_521525,DE VALORIZACIÓN,521525,pc_5215,co_pyg_30200,True,True
pc_521530,DE TURISMO,521530,pc_5215,co_pyg_30200,True,True
pc_521535,TASA POR UTILIZACIÓN DE PUERTOS,521535,pc_5215,co_pyg_30200,True,True
pc_521540,DE VEHÍCULOS,521540,pc_5215,co_pyg_30200,True,True
pc_521545,DE ESPECTÁCULOS PÚBLICOS,521545,pc_5215,co_pyg_30200,True,True
pc_521550,CUOTAS DE FOMENTO,521550,pc_5215,co_pyg_30200,True,True
pc_521555,LICORES,521555,pc_5215,co_pyg_30200,True,True
pc_521560,CERVEZAS,521560,pc_5215,co_pyg_30200,True,True
pc_521565,CIGARRILLOS,521565,pc_5215,co_pyg_30200,True,True
pc_521570,IVA DESCONTABLE,521570,pc_5215,co_pyg_30200,True,True
pc_521595,OTROS,521595,pc_5215,co_pyg_30200,True,True
pc_5220,ARRENDAMIENTOS,5220,pc_52,,,
pc_522005,TERRENOS,522005,pc_5220,co_pyg_30200,True,True
pc_522010,CONSTRUCCIONES Y EDIFICACIONES,522010,pc_5220,co_pyg_30200,True,True
pc_522015,MAQUINARIA Y EQUIPO,522015,pc_5220,co_pyg_30200,True,True
pc_522020,EQUIPO DE OFICINA,522020,pc_5220,co_pyg_30200,True,True
pc_522025,EQUIPO DE COMPUTACIÓN Y COMUNICACIÓN,522025,pc_5220,co_pyg_30200,True,True
pc_522035,EQUIPO DE HOTELES Y RESTAURANTES,522035,pc_5220,co_pyg_30200,True,True
pc_522040,FLOTA Y EQUIPO DE TRANSPORTE,522040,pc_5220,co_pyg_30200,True,True
pc_522095,OTROS,522095,pc_5220,co_pyg_30200,True,True
pc_5225,CONTRIBUCIONES Y AFILIACIONES,5225,pc_52,,,
pc_522505,CONTRIBUCIONES,522505,pc_5225,co_pyg_30200,True,True
pc_522510,AFILIACIONES Y SOSTENIMIENTO,522510,pc_5225,co_pyg_30200,True,True
pc_5230,SEGUROS,5230,pc_52,,,
pc_523005,MANEJO,523005,pc_5230,co_pyg_30200,True,True
pc_523010,CUMPLIMIENTO,523010,pc_5230,co_pyg_30200,True,True
pc_523015,CORRIENTE DÉBIL,523015,pc_5230,co_pyg_30200,True,True
pc_523020,VIDA COLECTIVA,523020,pc_5230,co_pyg_30200,True,True
pc_523025,INCENDIO,523025,pc_5230,co_pyg_30200,True,True
pc_523030,TERREMOTO,523030,pc_5230,co_pyg_30200,True,True
pc_523035,SUSTRACCIÓN Y HURTO,523035,pc_5230,co_pyg_30200,True,True
pc_523060,RESPONSABILIDAD CIVIL Y EXTRACONTRACTUAL,523060,pc_5230,co_pyg_30200,True,True
pc_523065,VUELO,523065,pc_5230,co_pyg_30200,True,True
pc_523070,ROTURA DE MAQUINARIA,523070,pc_5230,co_pyg_30200,True,True
pc_523075,OBLIGATORIO ACCIDENTE DE TRÁNSITO,523075,pc_5230,co_pyg_30200,True,True
pc_523080,LUCRO CESANTE,523080,pc_5230,co_pyg_30200,True,True
pc_523095,OTROS,523095,pc_5230,co_pyg_30200,True,True
pc_5235,SERVICIOS,5235,pc_52,,,
pc_523505,ASEO Y VIGILANCIA,523505,pc_5235,co_pyg_30200,True,True
pc_523510,TEMPORALES,523510,pc_5235,co_pyg_30200,True,True
pc_523515,ASISTENCIA TÉCNICA,523515,pc_5235,co_pyg_30200,True,True
pc_523520,PROCESAMIENTO ELECTRÓNICO DE DATOS,523520,pc_5235,co_pyg_30200,True,True
pc_523525,ACUEDUCTO Y ALCANTARILLADO,523525,pc_5235,co_pyg_30200,True,True
pc_523530,ENERGÍA ELÉCTRICA,523530,pc_5235,co_pyg_30200,True,True
pc_523535,TELÉFONO,523535,pc_5235,co_pyg_30200,True,True
pc_523540,"CORREO, PORTES Y TELEGRAMAS",523540,pc_5235,co_pyg_30200,True,True
pc_523545,FAX Y TÉLEX,523545,pc_5235,co_pyg_30200,True,True
pc_523550,"TRANSPORTE, FLETES Y ACARREOS",523550,pc_5235,co_pyg_30200,True,True
pc_523555,GAS,523555,pc_5235,co_pyg_30200,True,True
pc_523560,"PUBLICIDAD, PROPAGANDA Y PROMOCIÓN",523560,pc_5235,co_pyg_30200,True,True
pc_523595,OTROS,523595,pc_5235,co_pyg_30200,True,True
pc_5240,GASTOS LEGALES,5240,pc_52,,,
pc_524005,NOTARIALES,524005,pc_5240,co_pyg_30200,True,True
pc_524010,REGISTRO MERCANTIL,524010,pc_5240,co_pyg_30200,True,True
pc_524015,TRÁMITES Y LICENCIAS,524015,pc_5240,co_pyg_30200,True,True
pc_524020,ADUANEROS,524020,pc_5240,co_pyg_30200,True,True
pc_524025,CONSULARES,524025,pc_5240,co_pyg_30200,True,True
pc_524095,OTROS,524095,pc_5240,co_pyg_30200,True,True
pc_5245,MANTENIMIENTO Y REPARACIONES,5245,pc_52,,,
pc_524505,TERRENOS,524505,pc_5245,co_pyg_30200,True,True
pc_524510,CONSTRUCCIONES Y EDIFICACIONES,524510,pc_5245,co_pyg_30200,True,True
pc_524515,MAQUINARIA Y EQUIPO,524515,pc_5245,co_pyg_30200,True,True
pc_524520,EQUIPO DE OFICINA,524520,pc_5245,co_pyg_30200,True,True
pc_524525,EQUIPO DE COMPUTACIÓN Y COMUNICACIÓN,524525,pc_5245,co_pyg_30200,True,True
pc_524540,FLOTA Y EQUIPO DE TRANSPORTE,524540,pc_5245,co_pyg_30200,True,True
pc_524560,"ACUEDUCTOS, PLANTAS Y REDES",524560,pc_5245,co_pyg_30200,True,True
pc_5250,ADECUACIÓN E INSTALACIÓN,5250,pc_52,,,
pc_525005,INSTALACIONES ELÉCTRICAS,525005,pc_5250,co_pyg_30200,True,True
pc_525010,ARREGLOS ORNAMENTALES,525010,pc_5250,co_pyg_30200,True,True
pc_525015,REPARACIONES LOCATIVAS,525015,pc_5250,co_pyg_30200,True,True
pc_525095,OTROS,525095,pc_5250,co_pyg_30200,True,True
pc_5255,GASTOS DE VIAJE,5255,pc_52,,,
pc_525505,ALOJAMIENTO Y MANUTENCIÓN,525505,pc_5255,co_pyg_30200,True,True
pc_525510,PASAJES FLUVIALES Y/O MARÍTIMOS,525510,pc_5255,co_pyg_30200,True,True
pc_525515,PASAJES AÉREOS,525515,pc_5255,co_pyg_30200,True,True
pc_525520,PASAJES TERRESTRES,525520,pc_5255,co_pyg_30200,True,True
pc_525595,OTROS,525595,pc_5255,co_pyg_30200,True,True
pc_5260,DEPRECIACIONES,5260,pc_52,,,
pc_526005,CONSTRUCCIONES Y EDIFICACIONES,526005,pc_5260,co_pyg_30200,True,True
pc_526010,MAQUINARIA Y EQUIPO,526010,pc_5260,co_pyg_30200,True,True
pc_526015,EQUIPO DE OFICINA,526015,pc_5260,co_pyg_30200,True,True
pc_526020,EQUIPO DE COMPUTACIÓN Y COMUNICACIÓN,526020,pc_5260,co_pyg_30200,True,True
pc_5265,AMORTIZACIONES,5265,pc_52,,,
pc_5270,FINANCIEROS-REAJUSTE DEL SISTEMA,5270,pc_52,,,
pc_5275,PÉRDIDAS MÉTODO DE PARTICIPACIÓN,5275,pc_52,,,
pc_527505,DE SOCIEDADES ANÓNIMAS Y/O ASIMILADAS,527505,pc_5275,co_pyg_30200,True,True
pc_527510,DE SOCIEDADES LIMITADAS Y/O ASIMILADAS,527510,pc_5275,co_pyg_30200,True,True
pc_5295,DIVERSOS,5295,pc_52,,,
pc_529505,COMISIONES,529505,pc_5295,co_pyg_30200,True,True
pc_529510,"LIBROS, SUSCRIPCIONES, PERIÓDICOS Y REVISTAS",529510,pc_5295,co_pyg_30200,True,True
pc_529515,MÚSICA AMBIENTAL,529515,pc_5295,co_pyg_30200,True,True
pc_529520,GASTOS DE REPRESENTACIÓN Y RELACIONES PÚBLICAS,529520,pc_5295,co_pyg_30200,True,True
pc_529525,ELEMENTOS DE ASEO Y CAFETERÍA,529525,pc_5295,co_pyg_30200,True,True
pc_529530,"ÚTILES, PAPELERÍA Y FOTOCOPIAS",529530,pc_5295,co_pyg_30200,True,True
pc_529535,COMBUSTIBLES Y LUBRICANTES,529535,pc_5295,co_pyg_30200,True,True
pc_529540,ENVASES Y EMPAQUES,529540,pc_5295,co_pyg_30200,True,True
pc_529545,TAXIS Y BUSES,529545,pc_5295,co_pyg_30200,True,True
pc_529550,ESTAMPILLAS,529550,pc_5295,co_pyg_30200,True,True
pc_529555,MICROFILMACIÓN,529555,pc_5295,co_pyg_30200,True,True
pc_529560,CASINO Y RESTAURANTE,529560,pc_5295,co_pyg_30200,True,True
pc_529565,PARQUEADEROS,529565,pc_5295,co_pyg_30200,True,True
pc_529570,INDEMNIZACIÓN POR DAÑOS A TERCEROS,529570,pc_5295,co_pyg_30200,True,True
pc_529575,PÓLVORA Y SIMILARES,529575,pc_5295,co_pyg_30200,True,True
pc_529595,OTROS,529595,pc_5295,co_pyg_30200,True,True
pc_5299,PROVISIONES,5299,pc_52,,,
pc_529905,INVERSIONES,529905,pc_5299,co_pyg_30200,True,True
pc_529910,DEUDORES,529910,pc_5299,co_pyg_30200,True,True
pc_529915,INVENTARIOS,529915,pc_5299,co_pyg_30200,True,True
pc_529920,"PROPIEDADES, PLANTA Y EQUIPO",529920,pc_5299,co_pyg_30200,True,True
pc_529995,OTROS ACTIVOS,529995,pc_5299,co_pyg_30200,True,True
pc_53,NO OPERACIONALES,53,pc_5,,,
pc_5305,FINANCIEROS,5305,pc_53,,,
pc_530505,GASTOS BANCARIOS,530505,pc_5305,co_pyg_44600,True,True
pc_530510,REAJUSTE MONETARIO-UPAC (HOY UVR),530510,pc_5305,co_pyg_44600,True,True
pc_530515,COMISIONES,530515,pc_5305,co_pyg_44600,True,True
pc_530520,INTERESES,530520,pc_5305,co_pyg_44600,True,True
pc_530525,DIFERENCIA EN CAMBIO,530525,pc_5305,co_pyg_44600,True,True
pc_530530,GASTOS EN NEGOCIACIÓN CERTIFICADOS DE CAMBIO,530530,pc_5305,co_pyg_44600,True,True
pc_530535,DESCUENTOS COMERCIALES CONDICIONADOS,530535,pc_5305,co_pyg_44600,True,True
pc_530540,GASTOS MANEJO Y EMISIÓN DE BONOS,530540,pc_5305,co_pyg_44600,True,True
pc_530545,PRIMA AMORTIZADA,530545,pc_5305,co_pyg_44600,True,True
pc_530595,OTROS,530595,pc_5305,co_pyg_44600,True,True
pc_5310,PÉRDIDA EN VENTA Y RETIRO DE BIENES,5310,pc_53,,,
pc_531005,VENTA DE INVERSIONES,531005,pc_5310,co_pyg_44500,True,True
pc_531010,VENTA DE CARTERA,531010,pc_5310,co_pyg_44500,True,True
pc_531015,"VENTA DE PROPIEDADES, PLANTA Y EQUIPO",531015,pc_5310,co_pyg_44500,True,True
pc_531020,VENTA DE INTANGIBLES,531020,pc_5310,co_pyg_44500,True,True
pc_531025,VENTA DE OTROS ACTIVOS,531025,pc_5310,co_pyg_44500,True,True
pc_531030,"RETIRO DE PROPIEDADES, PLANTA Y EQUIPO",531030,pc_5310,co_pyg_44500,True,True
pc_531035,RETIRO DE OTROS ACTIVOS,531035,pc_5310,co_pyg_44500,True,True
pc_531040,PÉRDIDAS POR SINIESTROS,531040,pc_5310,co_pyg_44500,True,True
pc_5313,PÉRDIDAS MÉTODO DE PARTICIPACIÓN,5313,pc_53,,,
pc_531305,DE SOCIEDADES ANÓNIMAS Y/O ASIMILADAS,531305,pc_5313,co_pyg_44500,True,True
pc_531310,DE SOCIEDADES LIMITADAS Y/O ASIMILADAS,531310,pc_5313,co_pyg_44500,True,True
pc_5315,GASTOS EXTRAORDINARIOS,5315,pc_53,,,
pc_531505,COSTAS Y PROCESOS JUDICIALES,531505,pc_5315,co_pyg_44500,True,True
pc_531510,ACTIVIDADES CULTURALES Y CÍVICAS,531510,pc_5315,co_pyg_44500,True,True
pc_531515,COSTOS Y GASTOS DE EJERCICIOS ANTERIORES,531515,pc_5315,co_pyg_44500,True,True
pc_531520,IMPUESTOS ASUMIDOS,531520,pc_5315,co_pyg_47100,True,True
pc_531595,OTROS,531595,pc_5315,co_pyg_44500,True,True
pc_5395,GASTOS DIVERSOS,5395,pc_53,,,
pc_539505,DEMANDAS LABORALES,539505,pc_5395,co_pyg_44500,True,True
pc_539510,DEMANDAS POR INCUMPLIMIENTO DE CONTRATOS,539510,pc_5395,co_pyg_44500,True,True
pc_539515,INDEMNIZACIONES,539515,pc_5395,co_pyg_44500,True,True
pc_539520,"MULTAS, SANCIONES Y LITIGIOS",539520,pc_5395,co_pyg_44500,True,True
pc_539525,DONACIONES,539525,pc_5395,co_pyg_44500,True,True
pc_539530,CONSTITUCIÓN DE GARANTÍAS,539530,pc_5395,co_pyg_44500,True,True
pc_539535,AMORTIZACIÓN DE BIENES ENTREGADOS EN COMODATO,539535,pc_5395,co_pyg_44500,True,True
pc_539595,OTROS,539595,pc_5395,co_pyg_44500,True,True
pc_54,IMPUESTO DE RENTA Y COMPLEMENTARIOS,54,pc_5,,,
pc_5405,IMPUESTO DE RENTA Y COMPLEMENTARIOS,5405,pc_54,,,
pc_540505,IMPUESTO DE RENTA Y COMPLEMENTARIOS,540505,pc_5405,co_pyg_47100,True,True
pc_59,GANANCIAS Y PÉRDIDAS,59,pc_5,,,
pc_5905,GANANCIAS Y PÉRDIDAS,5905,pc_59,,,
pc_590505,GANANCIAS Y PÉRDIDAS,590505,pc_5905,co_pyg_45000,True,True
pc_6,COSTOS DE VENTAS,6,pc,,,
pc_61,COSTO DE VENTAS Y DE PRESTACIÓN DE SERVICIOS,61,pc_6,,,
pc_6105,"AGRICULTURA, GANADERÍA, CAZA Y SILVICULTURA",6105,pc_61,,,
pc_6110,PESCA,6110,pc_61,,,
pc_6115,EXPLOTACIÓN DE MINAS Y CANTERAS,6115,pc_61,,,
pc_6120,INDUSTRIAS MANUFACTURERAS,6120,pc_61,,,
pc_6125,"SUMINISTRO DE ELECTRICIDAD, GAS Y AGUA",6125,pc_61,,,
pc_6130,CONSTRUCCIÓN,6130,pc_61,,,
pc_6135,COMERCIO AL POR MAYOR Y AL POR MENOR,6135,pc_61,,,
pc_6140,HOTELES Y RESTAURANTES,6140,pc_61,,,
pc_6145,"TRANSPORTE, ALMACENAMIENTO Y COMUNICACIONES",6145,pc_61,,,
pc_6150,ACTIVIDAD FINANCIERA,6150,pc_61,,,
pc_6155,"ACTIVIDADES INMOBILIARIAS, EMPRESARIALES Y DE ALQUILER",6155,pc_61,,,
pc_6160,ENSEÑANZA,6160,pc_61,,,
pc_6165,SERVICIOS SOCIALES Y DE SALUD,6165,pc_61,,,
pc_6170,"OTRAS ACTIVIDADES DE SERVICIOS COMUNITARIOS, SOCIALES Y PERSONALES",6170,pc_61,,,
pc_62,COMPRAS,62,pc_6,,,
pc_6205,DE MERCANCÍAS,6205,pc_62,,,
pc_6210,DE MATERIAS PRIMAS,6210,pc_62,,,
pc_6215,DE MATERIALES INDIRECTOS,6215,pc_62,,,
pc_6220,COMPRA DE ENERGÍA,6220,pc_62,,,
pc_6225,DEVOLUCIONES EN COMPRAS (CR),6225,pc_62,,,
pc_7,COSTOS DE PRODUCCIÓN O DE OPERACIÓN,7,pc,,,
pc_71,MATERIA PRIMA,71,pc_7,,,
pc_72,MANO DE OBRA DIRECTA,72,pc_7,,,
pc_73,COSTOS INDIRECTOS,73,pc_7,,,
pc_74,CONTRATOS DE SERVICIOS,74,pc_7,,,
